Jhon K. Flores Rojas - Ssytndid
…
$att_table
# A tibble: 7 × 11
   time    tau tau_wt weighted_tau    N0    T0    N1    T1 weights_sdid Y_beta  
  <dbl>  <dbl>  <dbl>        <dbl> <int> <dbl> <int> <dbl> <list>       <list>  
1  2000  8.39      16       1.43     110    10     1    16 <named list> <dbl[…]>
2  2002  6.97      28       2.08     110    12     2    14 <named list> <dbl[…]>
3  2003 14.0       26       3.86     110    13     2    13 <named list> <dbl[…]>
4  2005 -3.45      11      -0.404    110    15     1    11 <named list> <dbl[…]>
5  2010  2.75       6       0.175    110    20     1     6 <named list> <dbl[…]>
6  2012 21.8        4       0.926    110    22     1     4 <named list> <dbl[…]>
7  2013 -0.820      3      -0.0262   110    23     1     3 <named list> <dbl[…]>
# ℹ 1 more variable: Units <list>

$data_ref
# A tibble: 3,094 × 7
   unit          time treatment outcome treated    ty tyear
   <chr>        <dbl>     <dbl>   <dbl>   <dbl> <dbl> <dbl>
 1 Albania       1990         0   28.8        0     0     0
 2 Angola        1990         0   14.5        0     0     0
 3 Argentina     1990         0    6.30       0     0     0
 4 Armenia       1990         0   35.6        0     0     0
 5 Australia     1990         0    6.10       0     0     0
 6 Austria       1990         0   11.5        0     0     0
 7 Bahamas, The  1990         0    4.10       0     0     0
 8 Barbados      1990         0    3.70       0     0     0
 9 Belgium       1990         0    8.5        0     0     0
10 Belize        1990         0    0          0     0     0
# ℹ 3,084 more rows
…
ssynth_estimate(california_prop99_cov, "State", "Year", "treated", "PacksPerCapita", covariates = c("cov"))

$att_estimate
[1] -15.60991

$att_table
# A tibble: 1 × 11
   time   tau tau_wt weighted_tau    N0    T0    N1    T1 weights_sdid Y_beta  
  <int> <dbl>  <dbl>        <dbl> <int> <dbl> <int> <dbl> <list>       <list>  
1  1989 -15.6     12        -15.6    38    19     1    12 <named list> <dbl[…]>
# ℹ 1 more variable: Units <list>

$data_ref
# A tibble: 1,209 × 8
   unit         time treatment outcome treated    ty tyear   cov
   <fct>       <int>     <int>   <dbl>   <int> <int> <int> <int>
 1 Alabama      1970         0    89.8       0     0     0     1
 2 Arkansas     1970         0   100.        0     0     0     2
 3 Colorado     1970         0   125.        0     0     0     3
 4 Connecticut  1970         0   120         0     0     0     4
 5 Delaware     1970         0   155         0     0     0     5
 6 Georgia      1970         0   110.        0     0     0     6
 7 Idaho        1970         0   102.        0     0     0     7
 8 Illinois     1970         0   125.        0     0     0     8
 9 Indiana      1970         0   135.        0     0     0     9
10 Iowa         1970         0   108.        0     0     0    10
# ℹ 1,199 more rows
…
